eeprom.c:57:6:EE_Format	32	static
eeprom.c:80:6:EE_Read	0	static
eeprom.c:126:6:EE_Reads	0	static
eeprom.c:87:6:EE_Write	24	static
eeprom.c:135:7:EE_Writes	24	static
eeprom.c:169:10:EE_GetSize	0	static
