json-maker.c:139:14:atoesc	28	static
json-maker.c:43:7:atoa	0	static
json-maker.c:183:14:primitivename	8	static
json-maker.c:51:7:json_objOpen	8	static
json-maker.c:63:7:json_objClose	0	static
json-maker.c:70:7:json_arrOpen	8	static
json-maker.c:82:7:json_arrClose	0	static
json-maker.c:92:7:strname_noquote	8	static
json-maker.c:105:7:strname	8	static
json-maker.c:164:7:json_nstr_noquote	16	static
json-maker.c:172:7:json_nstr	16	static
json-maker.c:193:7:json_bool	8	static
json-maker.c:200:7:json_null	8	static
json-maker.c:207:7:json_end	0	static
json-maker.c:298:1:json_int	16	static
json-maker.c:298:1:json_long	16	static
json-maker.c:298:1:json_uint	16	static
json-maker.c:298:1:json_ulong	16	static
json-maker.c:298:1:json_verylong	16	static
json-maker.c:298:1:json_double	16	static
